\relax 
\providecommand\hyper@newdestlabel[2]{}
\providecommand*{\memsetcounter}[2]{}
\providecommand\babel@aux[2]{}
\@nameuse{bbl@beforestart}
\catcode `:\active 
\catcode `;\active 
\catcode `!\active 
\catcode `?\active 
\providecommand\HyperFirstAtBeginDocument{\AtBeginDocument}
\HyperFirstAtBeginDocument{\ifx\hyper@anchor\@undefined
\global\let\oldcontentsline\contentsline
\gdef\contentsline#1#2#3#4{\oldcontentsline{#1}{#2}{#3}}
\global\let\oldnewlabel\newlabel
\gdef\newlabel#1#2{\newlabelxx{#1}#2}
\gdef\newlabelxx#1#2#3#4#5#6{\oldnewlabel{#1}{{#2}{#3}}}
\AtEndDocument{\ifx\hyper@anchor\@undefined
\let\contentsline\oldcontentsline
\let\newlabel\oldnewlabel
\fi}
\fi}
\global\let\hyper@last\relax 
\gdef\HyperFirstAtBeginDocument#1{#1}
\providecommand\HyField@AuxAddToFields[1]{}
\providecommand\HyField@AuxAddToCoFields[2]{}
\babel@aux{french}{}
\newlabel{chap:avant_propos}{{\M@TitleReference {}{Avant-Propos}}{3}{Avant-Propos}{chapter*.1}{}}
\@writefile{toc}{\contentsline {chapter}{\nameref  {chap:avant_propos}}{3}{chapter*.1}\protected@file@percent }
\@writefile{toc}{\contentsline {chapter}{Plan du cours}{4}{section*.5}\protected@file@percent }
\newlabel{chap:intro}{{\M@TitleReference {}{Introduction}}{5}{Introduction}{chapter*.6}{}}
\@writefile{toc}{\contentsline {chapter}{\nameref  {chap:intro}}{5}{chapter*.6}\protected@file@percent }
\@writefile{lof}{\addvspace {10pt}}
\@writefile{lot}{\addvspace {10pt}}
\@writefile{toc}{\contentsline {chapter}{\chapternumberline {1}Introduction - Les notions de base}{7}{chapter.1}\protected@file@percent }
\@writefile{toc}{\contentsline {section}{\numberline {1.1}Qu'est-ce que l'économie?}{7}{section.1.1}\protected@file@percent }
\@writefile{lof}{\addvspace {10pt}}
\@writefile{lot}{\addvspace {10pt}}
\@writefile{toc}{\contentsline {chapter}{\chapternumberline {2}Les ménages}{9}{chapter.2}\protected@file@percent }
\@writefile{toc}{\contentsline {section}{\numberline {2.1}La population / la démographie}{9}{section.2.1}\protected@file@percent }
\@writefile{toc}{\contentsline {subsection}{\numberline {2.1.1}Evolution de la population}{9}{subsection.2.1.1}\protected@file@percent }
\@writefile{toc}{\contentsline {subsection}{\numberline {2.1.2}La théorie de Keynes}{9}{subsection.2.1.2}\protected@file@percent }
\@writefile{toc}{\contentsline {subsection}{\numberline {2.1.3}L'effet d'inertie (Brown)}{9}{subsection.2.1.3}\protected@file@percent }
\@writefile{toc}{\contentsline {subsection}{\numberline {2.1.4}La théorie du revenu permanent}{9}{subsection.2.1.4}\protected@file@percent }
\memsetcounter{lastsheet}{9}
\memsetcounter{lastpage}{9}
\gdef \@abspage@last{9}
