\babel@toc {french}{}
\contentsline {chapter}{\nameref {chap:avant_propos}}{3}{chapter*.1}%
\contentsline {chapter}{Plan du cours}{4}{section*.5}%
\contentsline {chapter}{\nameref {chap:intro}}{5}{chapter*.6}%
\contentsline {chapter}{\chapternumberline {1}Introduction - Les notions de base}{7}{chapter.1}%
\contentsline {section}{\numberline {1.1}Qu'est-ce que l'économie?}{7}{section.1.1}%
\contentsline {chapter}{\chapternumberline {2}Les ménages}{9}{chapter.2}%
\contentsline {section}{\numberline {2.1}La population / la démographie}{9}{section.2.1}%
\contentsline {subsection}{\numberline {2.1.1}Evolution de la population}{9}{subsection.2.1.1}%
\contentsline {subsection}{\numberline {2.1.2}La théorie de Keynes}{9}{subsection.2.1.2}%
\contentsline {subsection}{\numberline {2.1.3}L'effet d'inertie (Brown)}{9}{subsection.2.1.3}%
\contentsline {subsection}{\numberline {2.1.4}La théorie du revenu permanent}{9}{subsection.2.1.4}%
